/Users/agammishra/Documents/Keanu_Project/gitlab_runner/keanu_project/src/test/java/keanu/Tests/AppHeaderSwipTest.java
/Users/agammishra/Documents/Keanu_Project/gitlab_runner/keanu_project/src/test/java/keanu/Tests/DiscoverScreenPhotoStreamTest.java
/Users/agammishra/Documents/Keanu_Project/gitlab_runner/keanu_project/src/test/java/keanu/Tests/AppLockTest.java
/Users/agammishra/Documents/Keanu_Project/gitlab_runner/keanu_project/src/test/java/keanu/Tests/AppHeaderArchiveUnarchiveTest.java
/Users/agammishra/Documents/Keanu_Project/gitlab_runner/keanu_project/src/test/java/keanu/Tests/MyProfileSignUpTest.java
/Users/agammishra/Documents/Keanu_Project/gitlab_runner/keanu_project/src/test/java/keanu/Tests/DiscoverScreenChatGroupTest.java
/Users/agammishra/Documents/Keanu_Project/gitlab_runner/keanu_project/src/test/java/keanu/Tests/ChatCreateEditTest.java
/Users/agammishra/Documents/Keanu_Project/gitlab_runner/keanu_project/src/test/java/keanu/Tests/AppHeaderTappingTest.java
/Users/agammishra/Documents/Keanu_Project/gitlab_runner/keanu_project/src/test/java/keanu/Tests/AppHeaderSearchTest.java
/Users/agammishra/Documents/Keanu_Project/gitlab_runner/keanu_project/src/test/java/keanu/Tests/ChatAddFriendMessagingTest.java
/Users/agammishra/Documents/Keanu_Project/gitlab_runner/keanu_project/src/test/java/keanu/Tests/DiscoverScreenTest.java
/Users/agammishra/Documents/Keanu_Project/gitlab_runner/keanu_project/src/test/java/keanu/Tests/DiscoverScreenCheckServicesTest.java
/Users/agammishra/Documents/Keanu_Project/gitlab_runner/keanu_project/src/test/java/keanu/Tests/FriendsScreenTest.java
/Users/agammishra/Documents/Keanu_Project/gitlab_runner/keanu_project/src/test/java/keanu/Tests/MyProfileSignInTest.java
/Users/agammishra/Documents/Keanu_Project/gitlab_runner/keanu_project/src/test/java/keanu/Tests/SignInTest.java
/Users/agammishra/Documents/Keanu_Project/gitlab_runner/keanu_project/src/test/java/keanu/Tests/ChatLeaveAndArchiveTest.java
/Users/agammishra/Documents/Keanu_Project/gitlab_runner/keanu_project/src/test/java/keanu/Tests/MyAccountsTest.java
/Users/agammishra/Documents/Keanu_Project/gitlab_runner/keanu_project/src/test/java/keanu/Tests/DiscoverScreenShareStickersTest.java
/Users/agammishra/Documents/Keanu_Project/gitlab_runner/keanu_project/src/test/java/keanu/Tests/SignUpTest.java
